>>> from pprint import pprint as pp
>>> pp(f._seating)
[None,
  {'A': None, 'B': None, 'C': None, 'D': None, 'E': None, 'F': None},
  {'A': None, 'B': None, 'C': None, 'D': None, 'E': None, 'F': None},
  {'A': None, 'B': None, 'C': None, 'D': None, 'E': None, 'F': None},
  {'A': None, 'B': None, 'C': None, 'D': None, 'E': None, 'F': None},
  {'A': None, 'B': None, 'C': None, 'D': None, 'E': None, 'F': None},
  {'A': None, 'B': None, 'C': None, 'D': None, 'E': None, 'F': None},
  {'A': None, 'B': None, 'C': None, 'D': None, 'E': None, 'F': None},
  {'A': None, 'B': None, 'C': None, 'D': None, 'E': None, 'F': None},
  {'A': None, 'B': None, 'C': None, 'D': None, 'E': None, 'F': None},
  {'A': None, 'B': None, 'C': None, 'D': None, 'E': None, 'F': None},
  {'A': None, 'B': None, 'C': None, 'D': None, 'E': None, 'F': None},
  {'A': None, 'B': None, 'C': None, 'D': None, 'E': None, 'F': None},
  {'A': None, 'B': None, 'C': None, 'D': None, 'E': None, 'F': None},
  {'A': None, 'B': None, 'C': None, 'D': None, 'E': None, 'F': None},
  {'A': None, 'B': None, 'C': None, 'D': None, 'E': None, 'F': None},
  {'A': None, 'B': None, 'C': None, 'D': None, 'E': None, 'F': None},
  {'A': None, 'B': None, 'C': None, 'D': None, 'E': None, 'F': None},
  {'A': None, 'B': None, 'C': None, 'D': None, 'E': None, 'F': None},
  {'A': None, 'B': None, 'C': None, 'D': None, 'E': None, 'F': None},
  {'A': None, 'B': None, 'C': None, 'D': None, 'E': None, 'F': None},
  {'A': None, 'B': None, 'C': None, 'D': None, 'E': None, 'F': None},
  {'A': None, 'B': None, 'C': None, 'D': None, 'E': None, 'F': None}]
